<?xml version="1.0" encoding="UTF-8" standalone="no"?>
<!-- Created with Inkscape (http://www.inkscape.org/) -->

<svg
   xmlns:dc="http://purl.org/dc/elements/1.1/"
   xmlns:cc="http://creativecommons.org/ns#"
   xmlns:rdf="http://www.w3.org/1999/02/22-rdf-syntax-ns#"
   xmlns:svg="http://www.w3.org/2000/svg"
   xmlns="http://www.w3.org/2000/svg"
   xmlns:sodipodi="http://sodipodi.sourceforge.net/DTD/sodipodi-0.dtd"
   xmlns:inkscape="http://www.inkscape.org/namespaces/inkscape"
   width="1920"
   height="1080"
   viewBox="0 0 1920 1080"
   id="svg2"
   version="1.1"
   inkscape:version="0.92.3 (2405546, 2018-03-11)"
   sodipodi:docname="credits-00.svg"
   inkscape:export-filename="/home/konstantin/1-work/pepper-and-carrot-ep05/credits.ru/credits-00.png"
   inkscape:export-xdpi="96"
   inkscape:export-ydpi="96">
  <defs
     id="defs4" />
  <sodipodi:namedview
     id="base"
     pagecolor="#ffffff"
     bordercolor="#666666"
     borderopacity="1.0"
     inkscape:pageopacity="0.0"
     inkscape:pageshadow="2"
     inkscape:zoom="0.35"
     inkscape:cx="949.61348"
     inkscape:cy="512.12255"
     inkscape:document-units="px"
     inkscape:current-layer="layer1"
     showgrid="false"
     inkscape:window-width="1918"
     inkscape:window-height="1014"
     inkscape:window-x="0"
     inkscape:window-y="0"
     inkscape:window-maximized="1"
     showguides="true"
     inkscape:guide-bbox="true"
     inkscape:snap-object-midpoints="true"
     inkscape:snap-center="true"
     inkscape:snap-bbox="true"
     inkscape:bbox-paths="true"
     inkscape:bbox-nodes="true"
     inkscape:snap-bbox-edge-midpoints="true"
     inkscape:snap-bbox-midpoints="true"
     inkscape:snap-global="false"
     units="px"
     fit-margin-top="0"
     fit-margin-left="0"
     fit-margin-right="0"
     fit-margin-bottom="0">
    <sodipodi:guide
       position="1420,9538.037"
       orientation="0,1"
       id="guide4528"
       inkscape:locked="false" />
    <sodipodi:guide
       position="1440.6211,9737.984"
       orientation="0,1"
       id="guide4530"
       inkscape:locked="false" />
    <inkscape:grid
       type="xygrid"
       id="grid4625"
       originx="14.28571"
       originy="8798.037" />
  </sodipodi:namedview>
  <metadata
     id="metadata7">
    <rdf:RDF>
      <cc:Work
         rdf:about="">
        <dc:format>image/svg+xml</dc:format>
        <dc:type
           rdf:resource="http://purl.org/dc/dcmitype/StillImage" />
        <dc:title />
      </cc:Work>
    </rdf:RDF>
  </metadata>
  <g
     inkscape:groupmode="layer"
     id="layer2"
     inkscape:label="Layer 2"
     style="display:inline"
     transform="translate(14.28571,-8770.3991)" />
  <g
     inkscape:groupmode="layer"
     id="layer3"
     inkscape:label="Layer 3"
     style="display:inline"
     transform="translate(14.28571,-8770.3991)" />
  <g
     inkscape:label="Layer 1"
     inkscape:groupmode="layer"
     id="layer1"
     style="display:inline"
     transform="translate(14.28571,-8770.3991)">
    <rect
       style="display:inline;opacity:1;fill:#000000;fill-opacity:1;stroke:none;stroke-width:0.32239905;stroke-linecap:round;stroke-linejoin:bevel;stroke-miterlimit:4;stroke-dasharray:none;stroke-opacity:1"
       id="rect4427"
       width="2027.144"
       height="1169.0333"
       x="-67.857735"
       y="8725.8828"
       inkscape:export-xdpi="80"
       inkscape:export-ydpi="80" />
    <flowRoot
       xml:space="preserve"
       id="flowRoot4346"
       style="font-style:normal;font-weight:normal;line-height:0.01%;font-family:sans-serif;letter-spacing:0.22px;word-spacing:0px;fill:#000000;fill-opacity:1;stroke:none;stroke-width:1px;stroke-linecap:butt;stroke-linejoin:miter;stroke-opacity:1"
       transform="translate(-148.88673,60.699616)"><flowRegion
         id="flowRegion4348"><rect
           id="rect4350"
           width="305.06607"
           height="4036.5696"
           x="105.05586"
           y="48.270576" /></flowRegion><flowPara
         id="flowPara4352"
         style="font-size:40px;line-height:1.25"> </flowPara></flowRoot>    <text
       xml:space="preserve"
       style="font-style:normal;font-variant:normal;font-weight:normal;font-stretch:normal;font-size:21.0368309px;line-height:0%;font-family:Arial;-inkscape-font-specification:Arial;letter-spacing:0.38567522px;word-spacing:0px;fill:#000000;fill-opacity:1;stroke:none;stroke-width:1.75306928px;stroke-linecap:butt;stroke-linejoin:miter;stroke-opacity:1"
       x="943.74554"
       y="9267.001"
       id="text4136"
       inkscape:export-xdpi="80"
       inkscape:export-ydpi="80"><tspan
         sodipodi:role="line"
         x="943.93835"
         y="9267.001"
         id="tspan4344"
         style="font-style:normal;font-variant:normal;font-weight:bold;font-stretch:normal;font-size:53.33333206px;line-height:125%;font-family:Arial;-inkscape-font-specification:'Arial Bold';text-align:center;writing-mode:lr-tb;text-anchor:middle;fill:#ffffff;fill-opacity:1;stroke-width:1.75306928px">при поддержке</tspan><tspan
         sodipodi:role="line"
         x="943.93835"
         y="9372.0996"
         style="font-style:normal;font-variant:normal;font-weight:bold;font-stretch:normal;font-size:96px;line-height:125%;font-family:Arial;-inkscape-font-specification:'Arial Bold';text-align:center;writing-mode:lr-tb;text-anchor:middle;fill:#ffffff;fill-opacity:1;stroke-width:1.75306928px"
         id="tspan3823">singpolyma</tspan></text>
  </g>
  <g
     inkscape:groupmode="layer"
     id="layer4"
     inkscape:label="Layer 4"
     style="display:none"
     transform="translate(14.28571,-8770.3991)">
    <g
       transform="translate(-2.7875e-5,-4.102144e-5)"
       style="display:inline"
       id="g5002">
      <text
         id="text4273"
         y="111.58097"
         x="1441.4875"
         style="font-style:normal;font-weight:normal;line-height:0%;font-family:sans-serif;letter-spacing:0px;word-spacing:0px;fill:#000000;fill-opacity:1;stroke:none;stroke-width:1px;stroke-linecap:butt;stroke-linejoin:miter;stroke-opacity:1"
         xml:space="preserve"><tspan
           style="font-style:normal;font-variant:normal;font-weight:bold;font-stretch:normal;font-size:40px;line-height:1.25;font-family:Arial;-inkscape-font-specification:'Arial Bold';fill:#ffffff"
           y="111.58097"
           x="1441.4875"
           id="tspan4275"
           sodipodi:role="line">- Duffy Weber</tspan></text>
      <flowRoot
         transform="translate(13.425231,-2.232233)"
         style="font-style:normal;font-weight:normal;line-height:0.01%;font-family:sans-serif;letter-spacing:0px;word-spacing:0px;fill:#000000;fill-opacity:1;stroke:none;stroke-width:1px;stroke-linecap:butt;stroke-linejoin:miter;stroke-opacity:1"
         id="flowRoot4299"
         xml:space="preserve"><flowRegion
           id="flowRegion4301"><rect
             y="74.534538"
             x="1104.0967"
             height="45.456863"
             width="313.14728"
             id="rect4303" /></flowRegion><flowPara
           style="font-style:normal;font-variant:normal;font-weight:bold;font-stretch:normal;font-size:40px;line-height:1.25;font-family:Arial;-inkscape-font-specification:'Arial Bold';text-align:end;text-anchor:end;fill:#ffffff"
           id="flowPara4305">Mayor</flowPara></flowRoot>      <text
         xml:space="preserve"
         style="font-style:normal;font-weight:normal;line-height:0%;font-family:sans-serif;letter-spacing:0px;word-spacing:0px;fill:#000000;fill-opacity:1;stroke:none;stroke-width:1px;stroke-linecap:butt;stroke-linejoin:miter;stroke-opacity:1"
         x="1441.4875"
         y="61.815639"
         id="text4307"><tspan
           sodipodi:role="line"
           id="tspan4309"
           x="1441.4875"
           y="61.815639"
           style="font-style:normal;font-variant:normal;font-weight:bold;font-stretch:normal;font-size:40px;line-height:1.25;font-family:Arial;-inkscape-font-specification:'Arial Bold';fill:#ffffff">- Samantha Faye Ignacio</tspan></text>
      <flowRoot
         xml:space="preserve"
         id="flowRoot4311"
         style="font-style:normal;font-weight:normal;line-height:0.01%;font-family:sans-serif;letter-spacing:0px;word-spacing:0px;fill:#000000;fill-opacity:1;stroke:none;stroke-width:1px;stroke-linecap:butt;stroke-linejoin:miter;stroke-opacity:1"
         transform="translate(13.425231,-51.997565)"><flowRegion
           id="flowRegion4313"><rect
             id="rect4315"
             width="313.14728"
             height="45.456863"
             x="1104.0967"
             y="74.534538" /></flowRegion><flowPara
           id="flowPara4317"
           style="font-style:normal;font-variant:normal;font-weight:bold;font-stretch:normal;font-size:40px;line-height:1.25;font-family:Arial;-inkscape-font-specification:'Arial Bold';text-align:end;text-anchor:end;fill:#ffffff">Pepper</flowPara></flowRoot>      <text
         xml:space="preserve"
         style="font-style:normal;font-weight:normal;line-height:0%;font-family:sans-serif;letter-spacing:0px;word-spacing:0px;fill:#000000;fill-opacity:1;stroke:none;stroke-width:1px;stroke-linecap:butt;stroke-linejoin:miter;stroke-opacity:1"
         x="1441.4875"
         y="161.96233"
         id="text4357"><tspan
           sodipodi:role="line"
           id="tspan4359"
           x="1441.4875"
           y="161.96233"
           style="font-style:normal;font-variant:normal;font-weight:bold;font-stretch:normal;font-size:40px;line-height:1.25;font-family:Arial;-inkscape-font-specification:'Arial Bold';fill:#ffffff">- Ariel Hancock </tspan></text>
      <flowRoot
         xml:space="preserve"
         id="flowRoot4361"
         style="font-style:normal;font-weight:normal;line-height:0.01%;font-family:sans-serif;letter-spacing:0px;word-spacing:0px;fill:#000000;fill-opacity:1;stroke:none;stroke-width:1px;stroke-linecap:butt;stroke-linejoin:miter;stroke-opacity:1"
         transform="translate(13.425231,48.149125)"><flowRegion
           id="flowRegion4363"><rect
             id="rect4365"
             width="313.14728"
             height="45.456863"
             x="1104.0967"
             y="74.534538" /></flowRegion><flowPara
           id="flowPara4367"
           style="font-style:normal;font-variant:normal;font-weight:bold;font-stretch:normal;font-size:40px;line-height:1.25;font-family:Arial;-inkscape-font-specification:'Arial Bold';text-align:end;text-anchor:end;fill:#ffffff">Saffron</flowPara></flowRoot>      <text
         id="text4383"
         y="211.91002"
         x="1441.4875"
         style="font-style:normal;font-weight:normal;line-height:0%;font-family:sans-serif;letter-spacing:0px;word-spacing:0px;fill:#000000;fill-opacity:1;stroke:none;stroke-width:1px;stroke-linecap:butt;stroke-linejoin:miter;stroke-opacity:1"
         xml:space="preserve"><tspan
           style="font-style:normal;font-variant:normal;font-weight:bold;font-stretch:normal;font-size:40px;line-height:1.25;font-family:Arial;-inkscape-font-specification:'Arial Bold';fill:#ffffff"
           y="211.91002"
           x="1441.4875"
           id="tspan4385"
           sodipodi:role="line">- Marielena Alcaraz</tspan></text>
      <flowRoot
         transform="translate(13.425231,98.096821)"
         style="font-style:normal;font-weight:normal;line-height:0.01%;font-family:sans-serif;letter-spacing:0px;word-spacing:0px;fill:#000000;fill-opacity:1;stroke:none;stroke-width:1px;stroke-linecap:butt;stroke-linejoin:miter;stroke-opacity:1"
         id="flowRoot4387"
         xml:space="preserve"><flowRegion
           id="flowRegion4389"><rect
             y="74.534538"
             x="1104.0967"
             height="45.456863"
             width="313.14728"
             id="rect4391" /></flowRegion><flowPara
           style="font-style:normal;font-variant:normal;font-weight:bold;font-stretch:normal;font-size:40px;line-height:1.25;font-family:Arial;-inkscape-font-specification:'Arial Bold';text-align:end;text-anchor:end;fill:#ffffff"
           id="flowPara4393">Shichimi</flowPara></flowRoot>      <text
         xml:space="preserve"
         style="font-style:normal;font-weight:normal;line-height:0%;font-family:sans-serif;letter-spacing:0px;word-spacing:0px;fill:#000000;fill-opacity:1;stroke:none;stroke-width:1px;stroke-linecap:butt;stroke-linejoin:miter;stroke-opacity:1"
         x="1441.4875"
         y="261.91257"
         id="text4409"><tspan
           sodipodi:role="line"
           id="tspan4411"
           x="1441.4875"
           y="261.91257"
           style="font-style:normal;font-variant:normal;font-weight:bold;font-stretch:normal;font-size:40px;line-height:1.25;font-family:Arial;-inkscape-font-specification:'Arial Bold';fill:#ffffff">- Ariel Hancock</tspan></text>
      <flowRoot
         xml:space="preserve"
         id="flowRoot4413"
         style="font-style:normal;font-weight:normal;line-height:0.01%;font-family:sans-serif;letter-spacing:0px;word-spacing:0px;fill:#000000;fill-opacity:1;stroke:none;stroke-width:1px;stroke-linecap:butt;stroke-linejoin:miter;stroke-opacity:1"
         transform="translate(13.425231,148.09937)"><flowRegion
           id="flowRegion4415"><rect
             id="rect4417"
             width="313.14728"
             height="45.456863"
             x="1104.0967"
             y="74.534538" /></flowRegion><flowPara
           id="flowPara4419"
           style="font-style:normal;font-variant:normal;font-weight:bold;font-stretch:normal;font-size:40px;line-height:1.25;font-family:Arial;-inkscape-font-specification:'Arial Bold';text-align:end;text-anchor:end;fill:#ffffff">Coriander</flowPara></flowRoot>      <text
         id="text4441"
         y="311.83334"
         x="1441.4875"
         style="font-style:normal;font-weight:normal;line-height:0%;font-family:sans-serif;letter-spacing:0px;word-spacing:0px;fill:#000000;fill-opacity:1;stroke:none;stroke-width:1px;stroke-linecap:butt;stroke-linejoin:miter;stroke-opacity:1"
         xml:space="preserve"><tspan
           style="font-style:normal;font-variant:normal;font-weight:bold;font-stretch:normal;font-size:40px;line-height:1.25;font-family:Arial;-inkscape-font-specification:'Arial Bold';fill:#ffffff"
           y="311.83334"
           x="1441.4875"
           id="tspan4443"
           sodipodi:role="line">- Duffy Weber</tspan></text>
      <flowRoot
         transform="translate(13.425231,198.02015)"
         style="font-style:normal;font-weight:normal;line-height:0.01%;font-family:sans-serif;letter-spacing:0px;word-spacing:0px;fill:#000000;fill-opacity:1;stroke:none;stroke-width:1px;stroke-linecap:butt;stroke-linejoin:miter;stroke-opacity:1"
         id="flowRoot4445"
         xml:space="preserve"><flowRegion
           id="flowRegion4447"><rect
             y="74.534538"
             x="1104.0967"
             height="45.456863"
             width="313.14728"
             id="rect4449" /></flowRegion><flowPara
           style="font-style:normal;font-variant:normal;font-weight:bold;font-stretch:normal;font-size:40px;line-height:1.25;font-family:Arial;-inkscape-font-specification:'Arial Bold';text-align:end;text-anchor:end;fill:#ffffff"
           id="flowPara4451">Narrator</flowPara></flowRoot>    </g>
  </g>
</svg>
