{
    "name": "002",
    "nodes": [
        {
            "children": [],
            "frame_index": 0,
            "name": "hair1.png",
            "node_path": "hair1.png",
            "offset": [
                -1246,
                486
            ],
            "opacity": 1.0,
            "pivot_offset": [
                0.0,
                0.0
            ],
            "position": [
                879,
                299
            ],
            "resource_path": "sprites/hair1.png",
            "rotation": 0.0,
            "scale": [
                1.0,
                1.0
            ],
            "tiles_x": 1,
            "tiles_y": 1,
            "type": "SPRITE",
            "z": 0
        },
        {
            "children": [],
            "frame_index": 0,
            "name": "hand.png",
            "node_path": "hand.png",
            "offset": [
                -1246,
                486
            ],
            "opacity": 1.0,
            "pivot_offset": [
                0.0,
                0.0
            ],
            "position": [
                826,
                442
            ],
            "resource_path": "sprites/hand.png",
            "rotation": 0.0,
            "scale": [
                1.0,
                1.0
            ],
            "tiles_x": 1,
            "tiles_y": 1,
            "type": "SPRITE",
            "z": -1
        },
        {
            "children": [],
            "frame_index": 0,
            "name": "hair3.png",
            "node_path": "hair3.png",
            "offset": [
                -1246,
                486
            ],
            "opacity": 1.0,
            "pivot_offset": [
                0.0,
                0.0
            ],
            "position": [
                718,
                431
            ],
            "resource_path": "sprites/hair3.png",
            "rotation": 0.0,
            "scale": [
                1.0,
                1.0
            ],
            "tiles_x": 1,
            "tiles_y": 1,
            "type": "SPRITE",
            "z": -2
        },
        {
            "children": [],
            "frame_index": 0,
            "name": "ear.png",
            "node_path": "ear.png",
            "offset": [
                -1246,
                486
            ],
            "opacity": 1.0,
            "pivot_offset": [
                0.0,
                0.0
            ],
            "position": [
                845,
                387
            ],
            "resource_path": "sprites/ear.png",
            "rotation": 0.0,
            "scale": [
                1.0,
                1.0
            ],
            "tiles_x": 1,
            "tiles_y": 1,
            "type": "SPRITE",
            "z": -3
        },
        {
            "children": [],
            "frame_index": 0,
            "name": "hair3 #1.png",
            "node_path": "hair3 #1.png",
            "offset": [
                -1246,
                486
            ],
            "opacity": 1.0,
            "pivot_offset": [
                0.0,
                0.0
            ],
            "position": [
                749,
                429
            ],
            "resource_path": "sprites/hair3 #1.png",
            "rotation": 0.0,
            "scale": [
                1.0,
                1.0
            ],
            "tiles_x": 1,
            "tiles_y": 1,
            "type": "SPRITE",
            "z": -4
        },
        {
            "children": [],
            "frame_index": 0,
            "name": "hair2.png",
            "node_path": "hair2.png",
            "offset": [
                -1246,
                486
            ],
            "opacity": 1.0,
            "pivot_offset": [
                0.0,
                0.0
            ],
            "position": [
                710,
                412
            ],
            "resource_path": "sprites/hair2.png",
            "rotation": 0.0,
            "scale": [
                1.0,
                1.0
            ],
            "tiles_x": 1,
            "tiles_y": 1,
            "type": "SPRITE",
            "z": -5
        },
        {
            "children": [],
            "frame_index": 0,
            "name": "kurtka.png",
            "node_path": "kurtka.png",
            "offset": [
                -1246,
                486
            ],
            "opacity": 1.0,
            "pivot_offset": [
                0.0,
                0.0
            ],
            "position": [
                605,
                450
            ],
            "resource_path": "sprites/kurtka.png",
            "rotation": 0.0,
            "scale": [
                1.0,
                1.0
            ],
            "tiles_x": 1,
            "tiles_y": 1,
            "type": "SPRITE",
            "z": -6
        },
        {
            "children": [],
            "frame_index": 0,
            "name": "Scarf.png",
            "node_path": "Scarf.png",
            "offset": [
                -1246,
                486
            ],
            "opacity": 1.0,
            "pivot_offset": [
                0.0,
                0.0
            ],
            "position": [
                903,
                494
            ],
            "resource_path": "sprites/Scarf.png",
            "rotation": 0.0,
            "scale": [
                1.0,
                1.0
            ],
            "tiles_x": 1,
            "tiles_y": 1,
            "type": "SPRITE",
            "z": -7
        },
        {
            "children": [],
            "frame_index": 0,
            "name": "Scarf2.png",
            "node_path": "Scarf2.png",
            "offset": [
                -1246,
                486
            ],
            "opacity": 1.0,
            "pivot_offset": [
                0.0,
                0.0
            ],
            "position": [
                960,
                588
            ],
            "resource_path": "sprites/Scarf2.png",
            "rotation": 0.0,
            "scale": [
                1.0,
                1.0
            ],
            "tiles_x": 1,
            "tiles_y": 1,
            "type": "SPRITE",
            "z": -8
        },
        {
            "children": [],
            "frame_index": 0,
            "name": "kurtka2.png",
            "node_path": "kurtka2.png",
            "offset": [
                -1246,
                486
            ],
            "opacity": 1.0,
            "pivot_offset": [
                0.0,
                0.0
            ],
            "position": [
                851,
                510
            ],
            "resource_path": "sprites/kurtka2.png",
            "rotation": 0.0,
            "scale": [
                1.0,
                1.0
            ],
            "tiles_x": 1,
            "tiles_y": 1,
            "type": "SPRITE",
            "z": -9
        },
        {
            "children": [],
            "frame_index": 0,
            "name": "head.png",
            "node_path": "head.png",
            "offset": [
                -1246,
                486
            ],
            "opacity": 1.0,
            "pivot_offset": [
                0.0,
                0.0
            ],
            "position": [
                496,
                33
            ],
            "resource_path": "sprites/head.png",
            "rotation": 0.0,
            "scale": [
                1.0,
                1.0
            ],
            "tiles_x": 1,
            "tiles_y": 1,
            "type": "SPRITE",
            "z": -10
        },
        {
            "children": [],
            "frame_index": 0,
            "name": "carrot.png",
            "node_path": "carrot.png",
            "offset": [
                -1246,
                486
            ],
            "opacity": 1.0,
            "pivot_offset": [
                0.0,
                0.0
            ],
            "position": [
                1296,
                254
            ],
            "resource_path": "sprites/carrot.png",
            "rotation": 0.0,
            "scale": [
                1.0,
                1.0
            ],
            "tiles_x": 1,
            "tiles_y": 1,
            "type": "SPRITE",
            "z": -11
        },
        {
            "children": [],
            "frame_index": 0,
            "name": "chand.png",
            "node_path": "chand.png",
            "offset": [
                -1246,
                486
            ],
            "opacity": 1.0,
            "pivot_offset": [
                0.0,
                0.0
            ],
            "position": [
                1634,
                348
            ],
            "resource_path": "sprites/chand.png",
            "rotation": 0.0,
            "scale": [
                1.0,
                1.0
            ],
            "tiles_x": 1,
            "tiles_y": 1,
            "type": "SPRITE",
            "z": -12
        },
        {
            "children": [],
            "frame_index": 0,
            "name": "chead.png",
            "node_path": "chead.png",
            "offset": [
                -1246,
                486
            ],
            "opacity": 1.0,
            "pivot_offset": [
                0.0,
                0.0
            ],
            "position": [
                1457,
                141
            ],
            "resource_path": "sprites/chead.png",
            "rotation": 0.0,
            "scale": [
                1.0,
                1.0
            ],
            "tiles_x": 1,
            "tiles_y": 1,
            "type": "SPRITE",
            "z": -13
        },
        {
            "children": [],
            "frame_index": 0,
            "name": "cear.png",
            "node_path": "cear.png",
            "offset": [
                -1246,
                486
            ],
            "opacity": 1.0,
            "pivot_offset": [
                0.0,
                0.0
            ],
            "position": [
                1522,
                163
            ],
            "resource_path": "sprites/cear.png",
            "rotation": 0.0,
            "scale": [
                1.0,
                1.0
            ],
            "tiles_x": 1,
            "tiles_y": 1,
            "type": "SPRITE",
            "z": -14
        },
        {
            "children": [],
            "frame_index": 0,
            "name": "chand2.png",
            "node_path": "chand2.png",
            "offset": [
                -1246,
                486
            ],
            "opacity": 1.0,
            "pivot_offset": [
                0.0,
                0.0
            ],
            "position": [
                1399,
                222
            ],
            "resource_path": "sprites/chand2.png",
            "rotation": 0.0,
            "scale": [
                1.0,
                1.0
            ],
            "tiles_x": 1,
            "tiles_y": 1,
            "type": "SPRITE",
            "z": -15
        },
        {
            "children": [],
            "frame_index": 0,
            "name": "\u0441body.png",
            "node_path": "\u0441body.png",
            "offset": [
                -1246,
                486
            ],
            "opacity": 1.0,
            "pivot_offset": [
                0.0,
                0.0
            ],
            "position": [
                1449,
                162
            ],
            "resource_path": "sprites/\u0441body.png",
            "rotation": 0.0,
            "scale": [
                1.0,
                1.0
            ],
            "tiles_x": 1,
            "tiles_y": 1,
            "type": "SPRITE",
            "z": -16
        },
        {
            "children": [],
            "frame_index": 0,
            "name": "snowman.png",
            "node_path": "snowman.png",
            "offset": [
                -1246,
                486
            ],
            "opacity": 1.0,
            "pivot_offset": [
                0.0,
                0.0
            ],
            "position": [
                167,
                41
            ],
            "resource_path": "sprites/snowman.png",
            "rotation": 0.0,
            "scale": [
                1.0,
                1.0
            ],
            "tiles_x": 1,
            "tiles_y": 1,
            "type": "SPRITE",
            "z": -17
        },
        {
            "children": [],
            "frame_index": 0,
            "name": "hand2.png",
            "node_path": "hand2.png",
            "offset": [
                -1246,
                486
            ],
            "opacity": 1.0,
            "pivot_offset": [
                0.0,
                0.0
            ],
            "position": [
                914,
                392
            ],
            "resource_path": "sprites/hand2.png",
            "rotation": 0.0,
            "scale": [
                1.0,
                1.0
            ],
            "tiles_x": 1,
            "tiles_y": 1,
            "type": "SPRITE",
            "z": -18
        },
        {
            "children": [],
            "frame_index": 0,
            "name": "broom.png",
            "node_path": "broom.png",
            "offset": [
                -1246,
                486
            ],
            "opacity": 1.0,
            "pivot_offset": [
                0.0,
                0.0
            ],
            "position": [
                1453,
                160
            ],
            "resource_path": "sprites/broom.png",
            "rotation": 0.0,
            "scale": [
                1.0,
                1.0
            ],
            "tiles_x": 1,
            "tiles_y": 1,
            "type": "SPRITE",
            "z": -19
        },
        {
            "children": [],
            "frame_index": 0,
            "name": "tail.png",
            "node_path": "tail.png",
            "offset": [
                -1246,
                486
            ],
            "opacity": 1.0,
            "pivot_offset": [
                0.0,
                0.0
            ],
            "position": [
                1641,
                507
            ],
            "resource_path": "sprites/tail.png",
            "rotation": 0.0,
            "scale": [
                1.0,
                1.0
            ],
            "tiles_x": 1,
            "tiles_y": 1,
            "type": "SPRITE",
            "z": -20
        },
        {
            "children": [],
            "frame_index": 0,
            "name": "shand.png",
            "node_path": "shand.png",
            "offset": [
                -1246,
                486
            ],
            "opacity": 1.0,
            "pivot_offset": [
                0.0,
                0.0
            ],
            "position": [
                1344,
                433
            ],
            "resource_path": "sprites/shand.png",
            "rotation": 0.0,
            "scale": [
                1.0,
                1.0
            ],
            "tiles_x": 1,
            "tiles_y": 1,
            "type": "SPRITE",
            "z": -21
        },
        {
            "children": [],
            "frame_index": 0,
            "name": "bg.png",
            "node_path": "bg.png",
            "offset": [
                -1246,
                486
            ],
            "opacity": 1.0,
            "pivot_offset": [
                0.0,
                0.0
            ],
            "position": [
                -161,
                -195
            ],
            "resource_path": "sprites/bg.png",
            "rotation": 0.0,
            "scale": [
                1.0,
                1.0
            ],
            "tiles_x": 1,
            "tiles_y": 1,
            "type": "SPRITE",
            "z": -22
        }
    ]
}