{
    "name": "bg",
    "nodes": [
        {
            "children": [],
            "frame_index": 0,
            "name": "ballneu.png",
            "node_path": "ballneu.png",
            "offset": [
                -1240,
                603
            ],
            "opacity": 1.0,
            "pivot_offset": [
                0.0,
                0.0
            ],
            "position": [
                417,
                -48
            ],
            "resource_path": "sprites/ballneu.png",
            "rotation": 0.0,
            "scale": [
                1.0,
                1.0
            ],
            "tiles_x": 1,
            "tiles_y": 1,
            "type": "SPRITE",
            "z": 0
        },
        {
            "children": [],
            "frame_index": 0,
            "name": "bgneu.png",
            "node_path": "bgneu.png",
            "offset": [
                -1240,
                603
            ],
            "opacity": 1.0,
            "pivot_offset": [
                0.0,
                0.0
            ],
            "position": [
                -366,
                -633
            ],
            "resource_path": "sprites/bgneu.png",
            "rotation": 0.0,
            "scale": [
                1.0,
                1.0
            ],
            "tiles_x": 1,
            "tiles_y": 1,
            "type": "SPRITE",
            "z": -1
        }
    ]
}