{
    "name": "010-new",
    "nodes": [
        {
            "children": [],
            "frame_index": 0,
            "name": "\u0440\u0443\u043a\u0430.png",
            "node_path": "\u0440\u0443\u043a\u0430.png",
            "offset": [
                -1970,
                903
            ],
            "opacity": 1.0,
            "pivot_offset": [
                0.0,
                0.0
            ],
            "position": [
                1547,
                27
            ],
            "resource_path": "sprites/\u0440\u0443\u043a\u0430.png",
            "rotation": 0.0,
            "scale": [
                1.0,
                1.0
            ],
            "tiles_x": 1,
            "tiles_y": 1,
            "type": "SPRITE",
            "z": 0
        },
        {
            "children": [],
            "frame_index": 0,
            "name": "Paint Layer 35 \u0421\u0432\u0435\u0434\u0435\u043d\u043e.png",
            "node_path": "Paint Layer 35 \u0421\u0432\u0435\u0434\u0435\u043d\u043e.png",
            "offset": [
                -1970,
                903
            ],
            "opacity": 1.0,
            "pivot_offset": [
                0.0,
                0.0
            ],
            "position": [
                -301,
                -396
            ],
            "resource_path": "sprites/Paint Layer 35 \u0421\u0432\u0435\u0434\u0435\u043d\u043e.png",
            "rotation": 0.0,
            "scale": [
                1.0,
                1.0
            ],
            "tiles_x": 1,
            "tiles_y": 1,
            "type": "SPRITE",
            "z": -1
        }
    ]
}