{
    "name": "angel",
    "nodes": [
        {
            "children": [],
            "frame_index": 0,
            "name": "angello1.png",
            "node_path": "angello1.png",
            "offset": [
                -1240,
                685
            ],
            "opacity": 0.8,
            "pivot_offset": [
                0.0,
                0.0
            ],
            "position": [
                384,
                174
            ],
            "resource_path": "sprites/angello1.png",
            "rotation": 0.0,
            "scale": [
                1.0,
                1.0
            ],
            "tiles_x": 1,
            "tiles_y": 1,
            "type": "SPRITE",
            "z": 0
        },
        {
            "children": [],
            "frame_index": 0,
            "name": "angello2.png",
            "node_path": "angello2.png",
            "offset": [
                -1240,
                685
            ],
            "opacity": 1.0,
            "pivot_offset": [
                0.0,
                0.0
            ],
            "position": [
                562,
                386
            ],
            "resource_path": "sprites/angello2.png",
            "rotation": 0.0,
            "scale": [
                1.0,
                1.0
            ],
            "tiles_x": 1,
            "tiles_y": 1,
            "type": "SPRITE",
            "z": -1
        }
    ]
}