{
    "name": "head",
    "nodes": [
        {
            "children": [],
            "frame_index": 0,
            "name": "eyes \u0421\u0432\u0435\u0434\u0435\u043d\u043e.png",
            "node_path": "eyes \u0421\u0432\u0435\u0434\u0435\u043d\u043e.png",
            "offset": [
                -1246,
                486
            ],
            "opacity": 1.0,
            "pivot_offset": [
                0.0,
                0.0
            ],
            "position": [
                1505,
                274
            ],
            "resource_path": "sprites/eyes \u0421\u0432\u0435\u0434\u0435\u043d\u043e.png",
            "rotation": 0.0,
            "scale": [
                1.0,
                1.0
            ],
            "tiles_x": 1,
            "tiles_y": 1,
            "type": "SPRITE",
            "z": 0
        },
        {
            "children": [],
            "frame_index": 0,
            "name": "chead \u0421\u0432\u0435\u0434\u0435\u043d\u043e.png",
            "node_path": "chead \u0421\u0432\u0435\u0434\u0435\u043d\u043e.png",
            "offset": [
                -1246,
                486
            ],
            "opacity": 1.0,
            "pivot_offset": [
                0.0,
                0.0
            ],
            "position": [
                1457,
                141
            ],
            "resource_path": "sprites/chead \u0421\u0432\u0435\u0434\u0435\u043d\u043e.png",
            "rotation": 0.0,
            "scale": [
                1.0,
                1.0
            ],
            "tiles_x": 1,
            "tiles_y": 1,
            "type": "SPRITE",
            "z": -1
        }
    ]
}